{
    "template": {
        "src": "file:///C:/Users/47939/Documents/Repos/Projects/WinterFall/WinterFall.aep",
        "composition": "main_preComp"
    },
    "actions":{
        "postrender": [
            {
                "module": "@nexrender/action-encode",
                "preset": "mp4",
                "output": "encoded.mp4"
            },
            {
                "module": "@nexrender/action-copy",
                "input": "encoded.mp4",
                "output": "/Users/47939/Documents/Repos/Projects/output/WinterFall.mp4"
            }
        ]
    }
}
